[playground] Julia Turing.jl : Bayesian Cognitive Modeling - Comparing binomial rates - quangtiencs
…
    return (theta_c=theta_c, theta_a=theta_a)
end

iterations = 10_000
burnin = 5_000

model_comparing_between_subject_proportions = ComparingBetweenSubjectProportions(ka, na, kc, nc)
chain = sample(model_comparing_between_subject_proportions, NUTS(), iterations, burnin=burnin)
chains_params = Turing.MCMCChains.get_sections(chain, :parameters)
quantities = generated_quantities(model_comparing_between_subject_proportions, chains_params)
chain

┌ Info: Found initial step size
└   ϵ = 0.4
Sampling: 100%|█████████████████████████████████████████| Time: 0:00:17

Chains MCMC chain (10000×93×1 Array{Float64, 3}):

Iterations        = 1001:1:11000
Number of chains  = 1
Samples per chain = 10000
Wall duration     = 24.1 seconds
Compute duration  = 24.1 seconds
parameters        = mu, sigma, delta, phi_c[1], phi_c[2], phi_c[3], phi_c[4], phi_c[5], phi_c[6], phi_c[7], phi_c[8], phi_c[9], phi_c[10], phi_c[11], phi_c[12], phi_c[13], phi_c[14], phi_c[15], phi_c[16], phi_c[17], phi_c[18], phi_c[19], phi_c[20], phi_c[21], phi_c[22], phi_c[23], phi_c[24], phi_c[25], phi_c[26], phi_a[1], phi_a[2], phi_a[3], phi_a[4], phi_a[5], phi_a[6], phi_a[7], phi_a[8], phi_a[9], phi_a[10], phi_a[11], phi_a[12], phi_a[13], phi_a[14], phi_a[15], phi_a[16], phi_a[17], phi_a[18], phi_a[19], phi_a[20], phi_a[21], phi_a[22], phi_a[23], phi_a[24], phi_a[25], phi_a[26], phi_a[27], phi_a[28], phi_a[29], phi_a[30], phi_a[31], phi_a[32], phi_a[33], phi_a[34], phi_a[35], phi_a[36], phi_a[37], phi_a[38], phi_a[39], phi_a[40], phi_a[41], phi_a[42], phi_a[43], phi_a[44], phi_a[45], phi_a[46], phi_a[47], phi_a[48], phi_a[49], phi_a[50], phi_a[51], phi_a[52]
internals         = lp, n_steps, is_accept, acceptance_rate, log_density, hamiltonian_energy, hamiltonian_energy_error, max_hamiltonian_energy_error, tree_depth, numerical_error, step_size, nom_step_size

Summary Statistics
  parameters      mean       std      mcse     ess_bulk    ess_tail      rhat  ⋯
      Symbol   Float64   Float64   Float64      Float64     Float64   Float64  ⋯

          mu    0.4491    0.0566    0.0005   15336.5752   7682.3289    1.0000  ⋯
       sigma    0.4555    0.0411    0.0003   14459.6877   7892.1440    1.0001  ⋯
       delta   -0.0625    0.2396    0.0020   14827.7631   8287.6669    0.9999  ⋯
    phi_c[1]    0.9098    0.1452    0.0010   22685.1207   7152.0471    1.0001  ⋯
    phi_c[2]    1.0183    0.1655    0.0012   20182.5693   6811.8721    1.0001  ⋯
    phi_c[3]    0.0802    0.1104    0.0008   21627.7966   6682.0873    1.0010  ⋯
    phi_c[4]    1.0620    0.1584    0.0011   19051.9682   6810.8421    0.9999  ⋯
    phi_c[5]    0.0996    0.1083    0.0007   21239.4743   6932.1835    1.0011  ⋯
    phi_c[6]    0.3558    0.1143    0.0008   19799.4003   6512.6977    1.0002  ⋯
    phi_c[7]    0.0428    0.1076    0.0007   23057.4906   7492.5669    0.9999  ⋯
    phi_c[8]   -0.0854    0.1080    0.0008   19389.8145   6662.9344    0.9999  ⋯
    phi_c[9]    0.1543    0.1081    0.0007   22027.6426   6310.8263    1.0002  ⋯
   phi_c[10]    0.9997    0.1627    0.0012   18576.4177   6908.7128    0.9999  ⋯
   phi_c[11]   -0.0293    0.1091    0.0008   19808.7096   6918.0579    1.0003  ⋯
   phi_c[12]    0.8166    0.1315    0.0009   20979.7148   6735.9554    1.0003  ⋯
   phi_c[13]   -0.4533    0.1096    0.0008   20534.6909   6801.2302    0.9999  ⋯
   phi_c[14]    0.9895    0.1575    0.0011   21462.2113   6667.1350    0.9999  ⋯
   phi_c[15]    0.0450    0.1072    0.0007   23768.8986   7307.9527    1.0005  ⋯
   phi_c[16]    1.1401    0.1541    0.0012   15683.2323   6845.6433    0.9999  ⋯
   phi_c[17]   -0.6034    0.1149    0.0008   19118.4181   7445.9207    0.9999  ⋯
   phi_c[18]    1.0100    0.1667    0.0012   18105.5386   7301.9226    1.0003  ⋯
   phi_c[19]    0.5493    0.1130    0.0009   17479.9917   6935.5551    1.0005  ⋯
   phi_c[20]    0.7398    0.1438    0.0010   18738.2446   6726.0646    1.0000  ⋯
      ⋮           ⋮         ⋮         ⋮          ⋮            ⋮          ⋮     ⋱
                                                    1 column and 58 rows omitted
…
    return (theta_c=theta_c, theta_a=theta_a)
end

iterations = 10_000
burnin = 5_000

model_order_restricted_between_subject_proportions = OrderRestrictedBetweenSubjectProportions(ka, na, kc, nc)
chain = sample(model_order_restricted_between_subject_proportions, NUTS(), iterations, burnin=burnin)
chains_params = Turing.MCMCChains.get_sections(chain, :parameters)
quantities = generated_quantities(model_order_restricted_between_subject_proportions, chains_params)
chain

┌ Info: Found initial step size
└   ϵ = 0.4
Sampling: 100%|█████████████████████████████████████████| Time: 0:00:13

Chains MCMC chain (10000×93×1 Array{Float64, 3}):

Iterations        = 1001:1:11000
Number of chains  = 1
Samples per chain = 10000
Wall duration     = 18.97 seconds
Compute duration  = 18.97 seconds
parameters        = mu, sigma, delta, phi_c[1], phi_c[2], phi_c[3], phi_c[4], phi_c[5], phi_c[6], phi_c[7], phi_c[8], phi_c[9], phi_c[10], phi_c[11], phi_c[12], phi_c[13], phi_c[14], phi_c[15], phi_c[16], phi_c[17], phi_c[18], phi_c[19], phi_c[20], phi_c[21], phi_c[22], phi_c[23], phi_c[24], phi_c[25], phi_c[26], phi_a[1], phi_a[2], phi_a[3], phi_a[4], phi_a[5], phi_a[6], phi_a[7], phi_a[8], phi_a[9], phi_a[10], phi_a[11], phi_a[12], phi_a[13], phi_a[14], phi_a[15], phi_a[16], phi_a[17], phi_a[18], phi_a[19], phi_a[20], phi_a[21], phi_a[22], phi_a[23], phi_a[24], phi_a[25], phi_a[26], phi_a[27], phi_a[28], phi_a[29], phi_a[30], phi_a[31], phi_a[32], phi_a[33], phi_a[34], phi_a[35], phi_a[36], phi_a[37], phi_a[38], phi_a[39], phi_a[40], phi_a[41], phi_a[42], phi_a[43], phi_a[44], phi_a[45], phi_a[46], phi_a[47], phi_a[48], phi_a[49], phi_a[50], phi_a[51], phi_a[52]
internals         = lp, n_steps, is_accept, acceptance_rate, log_density, hamiltonian_energy, hamiltonian_energy_error, max_hamiltonian_energy_error, tree_depth, numerical_error, step_size, nom_step_size

Summary Statistics
  parameters      mean       std      mcse     ess_bulk    ess_tail      rhat  ⋯
      Symbol   Float64   Float64   Float64      Float64     Float64   Float64  ⋯

          mu    0.4682    0.0557    0.0005   11536.0478   6881.3690    0.9999  ⋯
       sigma    0.4562    0.0404    0.0004   11262.5260   7597.4049    1.0001  ⋯
       delta    0.1742    0.1351    0.0013    7274.7236   4971.6464    1.0000  ⋯
    phi_c[1]    0.9161    0.1482    0.0013   12273.8395   6511.4078    1.0000  ⋯
    phi_c[2]    1.0250    0.1642    0.0014   12873.3587   7262.7948    1.0003  ⋯
    phi_c[3]    0.0854    0.1080    0.0010   12546.7066   7292.6724    1.0004  ⋯
    phi_c[4]    1.0720    0.1558    0.0014   12445.3199   6612.2790    1.0002  ⋯
    phi_c[5]    0.1027    0.1077    0.0009   14572.5607   6735.8726    1.0002  ⋯
    phi_c[6]    0.3598    0.1143    0.0010   12565.2028   6809.1214    1.0005  ⋯
    phi_c[7]    0.0470    0.1070    0.0009   13121.1828   6407.6875    1.0002  ⋯
    phi_c[8]   -0.0806    0.1086    0.0009   13535.3184   7100.9844    1.0003  ⋯
    phi_c[9]    0.1591    0.1082    0.0009   14465.0975   6905.0753    0.9999  ⋯
   phi_c[10]    1.0087    0.1596    0.0014   12996.8110   6475.8020    1.0000  ⋯
   phi_c[11]   -0.0268    0.1082    0.0010   11720.9801   7166.7608    1.0002  ⋯
   phi_c[12]    0.8226    0.1344    0.0013   11117.5222   7349.6512    1.0002  ⋯
   phi_c[13]   -0.4502    0.1117    0.0010   13504.1301   6893.9841    0.9999  ⋯
   phi_c[14]    0.9995    0.1573    0.0013   14473.6403   6848.9579    1.0004  ⋯
   phi_c[15]    0.0484    0.1070    0.0010   11009.8813   7570.0938    1.0000  ⋯
   phi_c[16]    1.1489    0.1534    0.0014   11584.7912   7257.6038    1.0002  ⋯
   phi_c[17]   -0.6009    0.1170    0.0012   10109.0426   7258.8666    0.9999  ⋯
   phi_c[18]    1.0190    0.1711    0.0016   11424.2508   6492.8260    1.0000  ⋯
   phi_c[19]    0.5552    0.1134    0.0010   13397.7681   5993.3786    1.0000  ⋯
   phi_c[20]    0.7462    0.1418    0.0013   12835.9461   7301.9182    1.0001  ⋯
      ⋮           ⋮         ⋮         ⋮          ⋮            ⋮          ⋮     ⋱
                                                    1 column and 58 rows omitted
…
