[playground] Julia Turing.jl : Bayesian Cognitive Modeling - Latent-mixture models - quangtiencs
…
end

TwentyQuestions (generic function with 2 methods)

iterations = 2_000
burnin = 2_00

model_twenty_questions = TwentyQuestions(k)
chain = sample(model_twenty_questions, NUTS(), iterations, burnin=burnin)

┌ Info: Found initial step size
└   ϵ = 1.6
Sampling: 100%|█████████████████████████████████████████| Time: 0:00:09

Chains MCMC chain (2000×42×1 Array{Float64, 3}):

Iterations        = 1001:1:3000
Number of chains  = 1
Samples per chain = 2000
Wall duration     = 13.85 seconds
Compute duration  = 13.85 seconds
parameters        = pi[1], pi[2], pi[3], pi[4], pi[5], pi[6], pi[7], pi[8], pi[9], pi[10], qi[1], qi[2], qi[3], qi[4], qi[5], qi[6], qi[7], qi[8], qi[9], qi[10], qi[11], qi[12], qi[13], qi[14], qi[15], qi[16], qi[17], qi[18], qi[19], qi[20]
internals         = lp, n_steps, is_accept, acceptance_rate, log_density, hamiltonian_energy, hamiltonian_energy_error, max_hamiltonian_energy_error, tree_depth, numerical_error, step_size, nom_step_size

Summary Statistics
  parameters      mean       std      mcse    ess_bulk    ess_tail      rhat   ⋯
      Symbol   Float64   Float64   Float64     Float64     Float64   Float64   ⋯

       pi[1]    0.8760    0.1098    0.0020   2688.7650   1435.2553    0.9995   ⋯
       pi[2]    0.2754    0.1395    0.0026   3071.1026   1456.0573    1.0001   ⋯
       pi[3]    0.4780    0.1741    0.0037   2205.2416   1142.0367    0.9999   ⋯
       pi[4]    0.3618    0.1551    0.0032   2496.5662   1425.7038    1.0000   ⋯
       pi[5]    0.8462    0.1177    0.0021   2570.1171   1456.8339    0.9996   ⋯
       pi[6]    0.8220    0.1229    0.0022   2418.2627   1142.1895    0.9996   ⋯
       pi[7]    0.1778    0.1156    0.0022   2502.7246   1265.2019    1.0020   ⋯
       pi[8]    0.0944    0.0883    0.0016   2799.4447   1000.3629    1.0038   ⋯
       pi[9]    0.7248    0.1607    0.0036   1649.0833    826.0313    1.0012   ⋯
      pi[10]    0.5214    0.1859    0.0045   1682.4494    883.1077    1.0013   ⋯
       qi[1]    0.7353    0.1743    0.0035   1780.7636    946.5882    0.9999   ⋯
       qi[2]    0.6900    0.1842    0.0033   2552.2948    989.2726    0.9997   ⋯
       qi[3]    0.7642    0.1561    0.0029   2330.5301   1053.4839    1.0006   ⋯
       qi[4]    0.6386    0.2047    0.0039   2619.7144   1235.6202    1.0004   ⋯
       qi[5]    0.1576    0.1373    0.0029   2059.7807   1227.9001    1.0014   ⋯
       qi[6]    0.3173    0.1936    0.0039   2616.0150   1393.1606    0.9998   ⋯
       qi[7]    0.7455    0.1622    0.0029   2400.5159    969.2226    0.9999   ⋯
       qi[8]    0.8146    0.1495    0.0026   2648.4667   1260.2918    0.9998   ⋯
       qi[9]    0.2843    0.1693    0.0037   2210.8002   1310.6773    0.9999   ⋯
      qi[10]    0.8520    0.1261    0.0022   2240.3937   1008.1558    1.0009   ⋯
      qi[11]    0.1500    0.1296    0.0021   3605.1469   1267.4127    1.0012   ⋯
      qi[12]    0.4179    0.1831    0.0039   2401.5869    973.8931    0.9997   ⋯
      qi[13]    0.8307    0.1404    0.0025   2856.6643   1267.5161    0.9995   ⋯
      ⋮           ⋮         ⋮         ⋮          ⋮           ⋮          ⋮      ⋱
                                                     1 column and 7 rows omitted
…
